…
### Data completness

``` r
#Performing a pivot table to check if there's step activity for each user each day
pivot_daily_steps <- daily_activity %>%  select(Id,ActivityDate,TotalSteps) %>% pivot_wider(names_from = ActivityDate, values_from=TotalSteps, values_fill = NaN)
pivot_daily_steps$num_na <- rowSums(is.na(pivot_daily_steps))
pivot_daily_steps %>% select(Id,num_na) %>%  arrange(desc(num_na))
```

    ## # A tibble: 33 x 2
    ##            Id num_na
    ##         <dbl>  <dbl>
    ##  1 4057192912     27
    ##  2 2347167796     13
    ##  3 8253242879     12
    ##  4 3372868164     11
    ##  5 6775888955      5
    ##  6 7007744171      5
    ##  7 6117666160      3
    ##  8 6290855005      2
    ##  9 8792009665      2
    ## 10 1644430081      1
    ## # ... with 23 more rows
…
### User clustering by average steps

From the participants we can group them according to their average steps
in 4 different categories to further study this: Bellow 5000 steps:
Sedentary Between 5000 and 8000 steps: Lightly active Between 8000 and
10000 steps: Fairly active Above 10000 steps: Very active

``` r
daily_activity %>% group_by(Id) %>%filter(Id!=4057192912) %>%  summarise(mean_steps = mean(TotalSteps), mean_distance = mean(TotalDistance), distance_per_step = mean(TotalDistance)*1000/mean(TotalSteps),n=n()) %>% arrange(n)
```

    ## # A tibble: 32 x 5
    ##            Id mean_steps mean_distance distance_per_step     n
    ##         <dbl>      <dbl>         <dbl>             <dbl> <int>
    ##  1 2347167796      9520.          6.36             0.668    18
    ##  2 8253242879      6482.          4.67             0.720    19
    ##  3 3372868164      6862.          4.71             0.686    20
    ##  4 6775888955      2520.          1.81             0.720    26
    ##  5 7007744171     11323.          8.02             0.708    26
    ##  6 6117666160      7047.          5.34             0.758    28
    ##  7 6290855005      5650.          4.27             0.756    29
    ##  8 8792009665      1854.          1.19             0.640    29
    ##  9 1644430081      7283.          5.30             0.727    30
    ## 10 3977333714     10985.          7.52             0.684    30
    ## # ... with 22 more rows
…
